\relax 
\bibstyle{jfm}
\bibdata{report}
\@writefile{toc}{\contentsline {section}{\numberline {1}Problem description}{1}}
\newlabel{sec:intro}{{1}{1}}
\@writefile{toc}{\contentsline {section}{\numberline {2}Sample results}{1}}
\@writefile{lof}{\contentsline {figure}{\numberline {1}{\ignorespaces Flow configuration}}{2}}
\newlabel{figure1}{{1}{2}}
\@writefile{lof}{\contentsline {figure}{\numberline {2}{\ignorespaces Checking Blasius profile coded in NGA with Matlab solution}}{2}}
\newlabel{figure2}{{2}{2}}
\@writefile{lof}{\contentsline {figure}{\numberline {3}{\ignorespaces Convergence history}}{3}}
\newlabel{figure3}{{3}{3}}
\@writefile{lof}{\contentsline {figure}{\numberline {4}{\ignorespaces Variation of momentum thickness along the streamwise direction}}{3}}
\newlabel{figure4}{{4}{3}}
\@writefile{lof}{\contentsline {figure}{\numberline {5}{\ignorespaces Time averaged velocity profile}}{4}}
\newlabel{figure5}{{5}{4}}
